<svg width="70" height="50" viewBox="0 0 91 78" fill="none" xmlns="http://www.w3.org/2000/svg">
<path d="M90.1602 58.2801L50.0002 58.2801L50.0002 75.6001C50.0002 76.3601 49.5602 77.0801 48.8802 77.4001C48.2002 77.7601 47.3602 77.6401 46.7602 77.1601L0.760144 40.3601C0.28014 40.0001 0.000149248 39.4001 0.000149195 38.8001C0.000149143 38.2001 0.28014 37.6001 0.760144 37.2401L46.7601 0.44006C47.1201 0.160061 47.5601 5.713e-05 48.0001 5.70915e-05C48.2801 5.7067e-05 48.6002 0.0800512 48.8802 0.200054C49.5602 0.520054 50.0001 1.24005 50.0001 2.00006L50.0001 19.3201L90.1602 19.3201L88.1602 23.3201L48.0001 23.3201C46.8801 23.3201 46.0001 22.4401 46.0001 21.3201L46.0001 6.16006L5.20015 38.8001L46.0002 71.4401L46.0002 56.2801C46.0002 55.1601 46.8802 54.2801 48.0002 54.2801L88.1602 54.2801L90.1602 58.2801Z" fill="white"/>
</svg>
