<svg width="196" height="32" viewBox="0 0 196 32" fill="none" xmlns="http://www.w3.org/2000/svg">
<path fill-rule="evenodd" clip-rule="evenodd" d="M24.868 0H16.9088V7.99859H24.868V0ZM16.8678 19.9965C16.8678 22.2417 15.0671 23.9944 12.929 23.9944C10.7909 23.9944 8.99023 22.2417 8.99023 19.9965C8.99023 17.7512 10.7909 15.9986 12.929 15.9986C15.0671 15.9986 16.8678 17.7512 16.8678 19.9965ZM24.8678 19.9965C24.8678 26.6227 19.5226 31.9944 12.929 31.9944C6.33541 31.9944 0.990234 26.6227 0.990234 19.9965C0.990234 13.3702 6.33541 7.99859 12.929 7.99859C19.5226 7.99859 24.8678 13.3702 24.8678 19.9965ZM105.618 8.81284H101.956V12.3809H105.618V8.81284ZM42.7126 14.7823C41.7607 14.0759 40.5524 13.652 39.2343 13.652C35.4997 13.652 32.8269 16.4424 32.8269 20.2571C32.8269 24.1071 35.6828 26.9328 39.5272 26.9328C43.4449 26.9328 46.4106 24.3543 46.4106 19.7979V9.51946H42.7126V14.7823ZM39.6737 23.3653C37.9162 23.3653 36.6347 22.0585 36.6347 20.2571C36.6347 18.4557 37.9162 17.1488 39.6737 17.1488C41.4312 17.1488 42.7126 18.4557 42.7126 20.2571C42.7126 22.0585 41.4312 23.3653 39.6737 23.3653ZM54.2471 13.5812C50.2561 13.5812 47.3637 16.4069 47.3637 20.2569C47.3637 24.2129 50.1829 26.9326 54.2471 26.9326C57.286 26.9326 59.7391 25.2725 60.4348 22.9766H56.4439C56.0411 23.4358 55.3455 23.6831 54.2104 23.6831C52.7093 23.6831 51.5742 22.8354 51.1715 21.5285H60.7277C60.8375 20.8927 60.8742 20.6101 60.8742 20.2569C60.9108 16.3716 58.1647 13.5812 54.2471 13.5812ZM54.064 16.8308C55.7116 16.8308 56.8466 17.8551 56.8466 19.0207H51.0983C51.4644 17.5725 52.5994 16.8308 54.064 16.8308ZM61.8997 20.7161C61.8997 16.1597 64.8654 13.5812 68.7831 13.5812C72.6641 13.5812 75.52 16.4069 75.4834 20.2569C75.4834 24.0716 72.8106 26.862 69.076 26.862C67.7579 26.862 66.5496 26.4381 65.5977 25.7317V30.9945H61.8997V20.7161ZM65.5977 20.2569C65.5977 22.0583 66.8792 23.3652 68.6366 23.3652C70.3941 23.3652 71.6756 22.0583 71.6756 20.2569C71.6756 18.4555 70.3941 17.1486 68.6366 17.1486C66.8792 17.1486 65.5977 18.4555 65.5977 20.2569ZM76.3991 20.2569C76.3991 16.4776 79.4014 13.5812 83.3191 13.5812C87.2368 13.5812 90.2391 16.4776 90.2391 20.2569C90.2391 24.0363 87.2368 26.9326 83.3191 26.9326C79.4014 26.9326 76.3991 24.0363 76.3991 20.2569ZM80.2435 20.2569C80.2435 22.0583 81.525 23.3652 83.3191 23.3652C85.0765 23.3652 86.3946 22.0583 86.3946 20.2569C86.3946 18.4555 85.1132 17.1486 83.3191 17.1486C81.5616 17.1486 80.2435 18.4555 80.2435 20.2569ZM96.6368 18.8961L96.7567 18.95C98.5142 19.7271 100.711 20.7514 100.711 23.0826C100.711 25.6257 98.148 26.9326 95.7681 26.9326C92.6925 26.9326 90.8619 25.0959 90.8619 22.2349H94.4134C94.4134 23.0826 94.8528 23.789 95.7315 23.789C96.3173 23.789 96.9031 23.5771 96.9031 22.9413C96.9031 22.3337 96.1673 22.0164 95.1751 21.5886L95.0358 21.5285L94.9903 21.5094C93.3129 20.806 91.1914 19.9165 91.1914 17.4312C91.1914 14.8528 93.3882 13.5812 95.7681 13.5812C98.7338 13.5812 100.528 15.3473 100.528 18.2083H96.9031C96.9031 17.4665 96.6102 16.7601 95.6949 16.7601C95.2189 16.7601 94.7429 17.0074 94.7429 17.4665C94.7429 18.045 95.5924 18.4268 96.6368 18.8961ZM157.647 11.2148H161.308V13.8285H164.311V17.396H161.308V22.4116C161.308 22.8707 161.565 23.118 162.041 23.118H164.311V26.6854H161.601C159.075 26.6854 157.647 25.3079 157.647 22.8707V11.2148ZM136.447 13.5813C135.385 13.5813 134.47 13.9345 133.738 14.5349V9.55465H130.04V26.7207H133.738V18.7735C133.738 17.6785 134.213 16.9721 135.202 16.9721C136.081 16.9721 136.52 17.3959 136.776 18.3849L138.79 26.6854H142.928L140.767 17.7138C140.035 14.6762 138.68 13.5813 136.447 13.5813ZM101.956 13.8284H105.617V26.6853H101.956V13.8284ZM171.634 13.5812C167.716 13.5812 164.714 16.4776 164.714 20.2569C164.714 24.0363 167.716 26.9326 171.634 26.9326C175.552 26.9326 178.554 24.0363 178.554 20.2569C178.554 16.4776 175.552 13.5812 171.634 13.5812ZM171.634 23.3652C169.84 23.3652 168.559 22.0583 168.559 20.2569C168.559 18.4555 169.877 17.1486 171.634 17.1486C173.428 17.1486 174.71 18.4555 174.71 20.2569C174.71 22.0583 173.428 23.3652 171.634 23.3652ZM184.952 18.8961L185.072 18.95C186.829 19.7271 188.989 20.7514 189.026 23.0826C189.026 25.6257 186.463 26.9326 184.083 26.9326C181.008 26.9326 179.177 25.0959 179.177 22.2349H182.728C182.728 23.0826 183.168 23.789 184.046 23.789C184.632 23.789 185.218 23.5771 185.218 22.9413C185.218 22.3337 184.482 22.0164 183.49 21.5886L183.351 21.5285L183.305 21.5094C181.628 20.806 179.506 19.9165 179.506 17.4312C179.506 14.8528 181.703 13.5812 184.083 13.5812C187.049 13.5812 188.843 15.3473 188.843 18.2083H185.218C185.218 17.4665 184.925 16.7601 184.01 16.7601C183.534 16.7601 183.058 17.0074 183.058 17.4665C183.058 18.045 183.907 18.4268 184.952 18.8961ZM149.628 13.5812C145.711 13.5812 142.708 16.4776 142.708 20.2569C142.708 24.0363 145.711 26.9326 149.628 26.9326C153.546 26.9326 156.548 24.0363 156.548 20.2569C156.548 16.4776 153.546 13.5812 149.628 13.5812ZM149.628 23.3652C147.834 23.3652 146.553 22.0583 146.553 20.2569C146.553 18.4555 147.871 17.1486 149.628 17.1486C151.422 17.1486 152.704 18.4555 152.704 20.2569C152.704 22.0583 151.422 23.3652 149.628 23.3652ZM115.321 20.7161C115.321 16.1597 118.287 13.5812 122.204 13.5812C126.085 13.5812 128.905 16.4069 128.905 20.2569C128.905 24.0716 126.232 26.862 122.497 26.862C121.179 26.862 119.971 26.4381 119.019 25.7317V30.9945H115.321V20.7161ZM119.019 20.2569C119.019 22.0583 120.3 23.3652 122.058 23.3652C123.815 23.3652 125.097 22.0583 125.097 20.2569C125.097 18.4555 123.815 17.1486 122.058 17.1486C120.3 17.1486 119.019 18.4555 119.019 20.2569ZM107.522 11.2148H111.183V13.8285H114.185V17.396H111.183V22.4116C111.183 22.8707 111.439 23.118 111.915 23.118H114.185V26.6854H111.476C108.949 26.6854 107.522 25.3079 107.522 22.8707V11.2148ZM190.573 14.4076C191.146 14.7921 191.819 14.9974 192.508 14.9974C193.432 14.9974 194.317 14.6287 194.97 13.9724C195.623 13.3161 195.99 12.4261 195.99 11.498C195.99 10.8059 195.786 10.1293 195.403 9.55382C195.021 8.97835 194.477 8.52983 193.841 8.26497C193.204 8.00011 192.504 7.93081 191.829 8.06583C191.153 8.20086 190.533 8.53414 190.046 9.02354C189.559 9.51293 189.227 10.1365 189.093 10.8153C188.958 11.4941 189.027 12.1977 189.291 12.8371C189.555 13.4766 190.001 14.0231 190.573 14.4076ZM191.052 9.30827C191.483 9.01889 191.99 8.86444 192.508 8.86444C192.852 8.86444 193.193 8.93256 193.511 9.0649C193.829 9.19725 194.118 9.39124 194.361 9.63578C194.604 9.88033 194.797 10.1706 194.929 10.4902C195.061 10.8097 195.129 11.1521 195.129 11.498C195.129 12.0188 194.975 12.528 194.687 12.9611C194.399 13.3942 193.99 13.7317 193.511 13.931C193.032 14.1304 192.505 14.1825 191.997 14.0809C191.489 13.9793 191.022 13.7285 190.655 13.3602C190.289 12.9919 190.039 12.5226 189.938 12.0117C189.837 11.5009 189.889 10.9714 190.087 10.4902C190.285 10.0089 190.621 9.59765 191.052 9.30827ZM193.193 13.1637H194.128L193.346 11.8679C193.544 11.769 193.71 11.6163 193.825 11.4272C193.941 11.238 194.002 11.0201 194 10.7981C193.997 10.6219 193.956 10.4484 193.881 10.289C193.806 10.1296 193.699 9.9879 193.566 9.87315C193.432 9.7584 193.277 9.67318 193.109 9.62306C192.94 9.57295 192.764 9.55906 192.59 9.58231H191.021V13.1637H191.763V11.9889H192.564L193.193 13.1637ZM191.759 10.3172H192.536L192.54 10.3202C192.618 10.3056 192.699 10.3087 192.776 10.3291C192.853 10.3496 192.925 10.3869 192.986 10.4384C193.047 10.4899 193.095 10.5543 193.129 10.6271C193.162 10.6998 193.179 10.7791 193.178 10.8592C193.177 10.9392 193.159 11.0181 193.124 11.0902C193.09 11.1623 193.04 11.2258 192.978 11.2762C192.916 11.3266 192.844 11.3625 192.766 11.3815C192.689 11.4005 192.608 11.402 192.53 11.386H191.759V10.3172Z" fill="white"/>
</svg>
