<svg width="114" height="54" viewBox="0 0 114 54" fill="none" xmlns="http://www.w3.org/2000/svg">
<g clip-path="url(#clip0)">
<path d="M113.172 48.8606C113.008 48.8606 112.847 48.9102 112.711 49.0031C112.575 49.0961 112.469 49.2282 112.406 49.3827C112.343 49.5373 112.327 49.7073 112.359 49.8714C112.391 50.0355 112.47 50.1862 112.586 50.3045C112.702 50.4228 112.849 50.5033 113.01 50.536C113.171 50.5686 113.337 50.5519 113.489 50.4878C113.64 50.4238 113.769 50.3154 113.86 50.1763C113.951 50.0372 114 49.8737 114 49.7064C114 49.4821 113.912 49.2671 113.757 49.1085C113.602 48.9499 113.391 48.8608 113.172 48.8606ZM113.172 50.4191C113.033 50.4191 112.898 50.3773 112.784 50.299C112.669 50.2207 112.579 50.1094 112.527 49.9792C112.474 49.8489 112.46 49.7056 112.487 49.5674C112.514 49.4291 112.58 49.3021 112.678 49.2024C112.775 49.1028 112.9 49.0349 113.035 49.0074C113.171 48.9799 113.311 48.994 113.439 49.0479C113.566 49.1019 113.675 49.1932 113.752 49.3104C113.829 49.4276 113.87 49.5654 113.87 49.7064C113.869 49.8953 113.795 50.0762 113.665 50.2098C113.534 50.3433 113.356 50.4186 113.172 50.4191ZM113.44 49.5628C113.44 49.4086 113.333 49.3174 113.177 49.3174H112.91V50.0873H113.04V49.8078H113.181L113.318 50.0873H113.458L113.307 49.781C113.349 49.7632 113.384 49.7326 113.408 49.6935C113.432 49.6544 113.443 49.6087 113.44 49.5628ZM113.17 49.6901H113.042V49.4351H113.17C113.257 49.4351 113.31 49.4801 113.31 49.5628C113.31 49.6455 113.257 49.6901 113.17 49.6901ZM13.3286 40.3V38.2544H10.2568V50.4266H13.3286V43.1281C13.3286 41.8058 14.1621 41.1591 15.4553 41.1591H17.1363V38.2561H15.6997C14.5758 38.2544 13.5983 38.8531 13.3286 40.3ZM20.0141 33.4392C18.9636 33.4392 18.1575 34.2874 18.1575 35.3599C18.1575 35.6089 18.2055 35.8554 18.2988 36.0854C18.3921 36.3154 18.5289 36.5244 18.7014 36.7005C18.8738 36.8765 19.0785 37.0162 19.3038 37.1114C19.5291 37.2067 19.7706 37.2558 20.0144 37.2558C20.2583 37.2558 20.4998 37.2067 20.7251 37.1114C20.9504 37.0162 21.1551 36.8765 21.3275 36.7005C21.5 36.5244 21.6368 36.3154 21.7301 36.0854C21.8234 35.8554 21.8714 35.6089 21.8714 35.3599C21.8724 34.2874 21.066 33.4392 20.0151 33.4392H20.0141ZM18.4805 50.4266H21.5454V38.2544H18.4829L18.4805 50.4266ZM36.1486 44.3405C36.1486 47.8153 33.3894 50.6322 29.9858 50.6322C28.6803 50.6376 27.4095 50.2031 26.3705 49.396V53.9988H23.3057V38.2544H26.3705V39.2837C27.4103 38.4766 28.682 38.0425 29.9882 38.0488C33.3918 38.0488 36.1509 40.8657 36.1509 44.3405H36.1486ZM33.0637 44.3405C33.0637 43.6645 32.8673 43.0036 32.4995 42.4416C32.1316 41.8795 31.6087 41.4414 30.9969 41.1827C30.3851 40.924 29.712 40.8563 29.0625 40.9882C28.4131 41.1201 27.8165 41.4457 27.3483 41.9238C26.8801 42.4018 26.5613 43.0109 26.4322 43.6739C26.303 44.337 26.3694 45.0242 26.6228 45.6487C26.8763 46.2733 27.3054 46.8071 27.856 47.1826C28.4066 47.5582 29.054 47.7586 29.7161 47.7585C30.1559 47.7587 30.5914 47.6705 30.9978 47.4988C31.4041 47.3271 31.7734 47.0754 32.0844 46.758C32.3954 46.4406 32.6422 46.0637 32.8105 45.6489C32.9788 45.2341 33.0654 44.7895 33.0654 44.3405H33.0637ZM89.4321 43.2728L87.6438 42.7718C86.4672 42.4593 86.0102 42.091 86.0102 41.4559C86.0102 40.8368 86.6543 40.4045 87.5771 40.4045C88.4552 40.4045 89.144 40.992 89.144 41.7418V41.8099H91.9692V41.7418C91.9692 39.5328 90.2046 38.0488 87.5778 38.0488C84.9756 38.0488 83.087 39.5318 83.087 41.575C83.087 43.1649 84.1205 44.3623 85.9208 44.8603L87.6338 45.3368C88.934 45.7044 89.4187 46.1128 89.4187 46.8436C89.4187 47.6152 88.7186 48.1336 87.6788 48.1336C86.5936 48.1336 85.8645 47.4331 85.8645 46.3909V46.3228H82.8639V46.3909C82.8639 48.8882 84.8333 50.6322 87.6528 50.6322C90.3699 50.6322 92.3419 48.9304 92.3419 46.5818C92.3422 45.4331 91.8365 43.927 89.4344 43.2728H89.4321ZM47.0248 38.2544H50.0896V50.4266H47.0248V49.396C45.9849 50.2031 44.7131 50.6372 43.4068 50.6308C40.0032 50.6308 37.2441 47.814 37.2441 44.3392C37.2441 40.8643 40.0032 38.0474 43.4068 38.0474C44.7131 38.0411 45.9849 38.4752 47.0248 39.2823V38.2544ZM47.0248 44.3409C47.0247 43.6649 46.8283 43.0041 46.4604 42.442C46.0925 41.88 45.5696 41.4419 44.9578 41.1833C44.3461 40.9247 43.6729 40.857 43.0235 40.9889C42.3741 41.1209 41.7776 41.4464 41.3094 41.9244C40.8412 42.4025 40.5224 43.0115 40.3933 43.6745C40.2641 44.3375 40.3304 45.0247 40.5838 45.6493C40.8372 46.2738 41.2663 46.8076 41.8169 47.1832C42.3675 47.5587 43.0147 47.7592 43.6769 47.7592C44.1167 47.7594 44.5523 47.6711 44.9588 47.4994C45.3652 47.3276 45.7346 47.0758 46.0456 46.7583C46.3567 46.4408 46.6034 46.0638 46.7717 45.6489C46.94 45.234 47.0266 44.7893 47.0264 44.3402L47.0248 44.3409ZM61.1605 33.9219H64.2254V50.4266H61.1605V49.396C60.1207 50.2031 58.8489 50.6372 57.5426 50.6308C54.139 50.6308 51.3799 47.814 51.3799 44.3392C51.3799 40.8643 54.139 38.0474 57.5426 38.0474C58.8489 38.0411 60.1207 38.4752 61.1605 39.2823V33.9219ZM61.1605 44.3405C61.1605 43.6645 60.9642 43.0037 60.5963 42.4416C60.2284 41.8795 59.7056 41.4414 59.0938 41.1827C58.4821 40.924 57.8089 40.8563 57.1595 40.9882C56.5101 41.1201 55.9135 41.4456 55.4453 41.9236C54.9771 42.4016 54.6582 43.0107 54.5291 43.6737C54.3999 44.3367 54.4662 45.024 54.7196 45.6485C54.973 46.2731 55.4021 46.8069 55.9526 47.1825C56.5032 47.558 57.1505 47.7585 57.8126 47.7585C58.2523 47.7586 58.6877 47.6702 59.094 47.4985C59.5002 47.3268 59.8693 47.075 60.1803 46.7576C60.4912 46.4402 60.7378 46.0634 60.9061 45.6486C61.0743 45.2339 61.1609 44.7894 61.1609 44.3405H61.1605ZM78.4602 50.4266H81.5251V38.2544H78.4602V50.4266ZM79.9938 33.4392C78.9429 33.4392 78.1368 34.2874 78.1368 35.3599C78.1368 35.8627 78.3325 36.3449 78.6807 36.7005C79.029 37.056 79.5013 37.2558 79.9938 37.2558C80.4863 37.2558 80.9586 37.056 81.3069 36.7005C81.6551 36.3449 81.8508 35.8627 81.8508 35.3599C81.8501 34.2874 81.0436 33.4392 79.9931 33.4392H79.9938ZM105.593 44.3405C105.593 47.8153 102.833 50.6322 99.4298 50.6322C96.0262 50.6322 93.2671 47.8153 93.2671 44.3405C93.2671 40.8657 96.0262 38.0488 99.4298 38.0488C102.833 38.0488 105.592 40.8657 105.592 44.3405H105.593ZM102.778 44.3405C102.778 43.6645 102.581 43.0037 102.213 42.4416C101.846 41.8795 101.323 41.4414 100.711 41.1827C100.099 40.924 99.4261 40.8563 98.7767 40.9882C98.1272 41.1201 97.5307 41.4456 97.0625 41.9236C96.5943 42.4016 96.2754 43.0107 96.1462 43.6737C96.017 44.3367 96.0833 45.024 96.3367 45.6485C96.5901 46.2731 97.0192 46.8069 97.5698 47.1825C98.1204 47.558 98.7677 47.7585 99.4298 47.7585C99.8694 47.7585 100.305 47.6701 100.711 47.4983C101.117 47.3265 101.486 47.0748 101.797 46.7574C102.108 46.44 102.354 46.0632 102.523 45.6485C102.691 45.2338 102.777 44.7893 102.777 44.3405H102.778ZM11.762 33.9219H0V36.7129H4.35275V50.4256H7.40694V36.7139H11.7597L11.762 33.9219ZM71.2339 47.0941L68.5048 38.2544H65.2849L69.3753 50.4266H73.0639L77.1783 38.2544H73.9584L71.2339 47.0941ZM110.087 40.3007V38.2551H107.011V50.4273H110.085V43.1281C110.085 41.8061 110.915 41.1574 112.21 41.1574H113.891V38.2544H112.455C111.33 38.2544 110.353 38.8531 110.084 40.3L110.087 40.3007Z" fill="white"/>
<path d="M56.9443 32.0136C65.6034 32.0136 72.623 24.8471 72.623 16.0068C72.623 7.16649 65.6034 0 56.9443 0C48.2852 0 41.2656 7.16649 41.2656 16.0068C41.2656 24.8471 48.2852 32.0136 56.9443 32.0136Z" fill="#34E0A1"/>
<path d="M66.6274 12.8826L68.5201 10.7805H64.3247C62.1504 9.2698 59.5812 8.46191 56.9511 8.46191C54.321 8.46191 51.7518 9.2698 49.5775 10.7805H45.3711L47.2638 12.8826C46.7034 13.4071 46.2499 14.0391 45.929 14.7426C45.6082 15.4462 45.4263 16.2074 45.3938 16.9827C45.3613 17.758 45.4788 18.5323 45.7397 19.2612C46.0005 19.9902 46.3995 20.6594 46.9139 21.2308C47.4283 21.8022 48.048 22.2644 48.7375 22.5911C49.427 22.9178 50.1728 23.1025 50.9323 23.1347C51.6918 23.1669 52.4501 23.0459 53.1637 22.7787C53.8774 22.5114 54.5324 22.1032 55.0914 21.5773L56.9458 23.6369L58.7987 21.5787C59.8666 22.5913 61.2706 23.1532 62.7281 23.1512C65.9223 23.1512 68.5141 20.5075 68.5141 17.2465C68.5151 16.425 68.3477 15.6124 68.0228 14.8609C67.6979 14.1093 67.2226 13.4355 66.6274 12.8826ZM51.1608 21.2424C50.3866 21.2424 49.6299 21.008 48.9862 20.569C48.3426 20.1299 47.8409 19.5058 47.5447 18.7757C47.2484 18.0455 47.1709 17.2421 47.322 16.4669C47.473 15.6918 47.8458 14.9798 48.3931 14.4209C48.9405 13.8621 49.6379 13.4815 50.3972 13.3274C51.1564 13.1732 51.9434 13.2523 52.6586 13.5547C53.3738 13.8572 53.9851 14.3694 54.4151 15.0265C54.8452 15.6836 55.0748 16.4562 55.0748 17.2465C55.0748 17.7712 54.9735 18.2908 54.7768 18.7757C54.5801 19.2605 54.2918 19.701 53.9284 20.072C53.5649 20.4431 53.1335 20.7374 52.6586 20.9382C52.1837 21.139 51.6748 21.2424 51.1608 21.2424ZM56.9458 17.1314C56.9458 14.5018 55.0721 12.2455 52.6013 11.2805C53.9778 10.6951 55.4541 10.3937 56.9453 10.3937C58.4364 10.3937 59.9127 10.6951 61.2892 11.2805C58.8187 12.2458 56.9458 14.5021 56.9458 17.1314ZM62.7281 21.2424C61.954 21.2424 61.1972 21.008 60.5536 20.569C59.9099 20.1299 59.4083 19.5058 59.112 18.7757C58.8158 18.0455 58.7383 17.2421 58.8893 16.4669C59.0403 15.6918 59.4131 14.9798 59.9605 14.4209C60.5078 13.8621 61.2053 13.4815 61.9645 13.3274C62.7237 13.1732 63.5107 13.2523 64.2259 13.5547C64.9411 13.8572 65.5524 14.3694 65.9825 15.0265C66.4125 15.6836 66.6421 16.4562 66.6421 17.2465C66.6421 18.3063 66.2297 19.3226 65.4957 20.072C64.7617 20.8214 63.7661 21.2424 62.7281 21.2424ZM62.7281 15.1519C62.3222 15.1519 61.9255 15.2747 61.588 15.505C61.2505 15.7352 60.9875 16.0624 60.8322 16.4452C60.6769 16.828 60.6363 17.2493 60.7155 17.6557C60.7947 18.0621 60.9902 18.4353 61.2772 18.7283C61.5642 19.0213 61.9299 19.2208 62.328 19.3016C62.726 19.3824 63.1386 19.3408 63.5136 19.1822C63.8885 19.0236 64.209 18.755 64.4344 18.4105C64.6599 18.0659 64.7802 17.6608 64.7801 17.2465C64.7801 16.9714 64.727 16.699 64.6239 16.4448C64.5208 16.1907 64.3696 15.9598 64.1791 15.7652C63.9885 15.5707 63.7623 15.4165 63.5133 15.3112C63.2644 15.206 62.9975 15.1518 62.7281 15.1519ZM53.2128 17.2465C53.2128 17.6608 53.0925 18.0659 52.8671 18.4105C52.6417 18.755 52.3212 19.0236 51.9463 19.1822C51.5713 19.3408 51.1587 19.3824 50.7606 19.3016C50.3626 19.2208 49.9969 19.0213 49.7099 18.7283C49.4229 18.4353 49.2274 18.0621 49.1482 17.6557C49.069 17.2493 49.1096 16.828 49.2649 16.4452C49.4202 16.0624 49.6832 15.7352 50.0207 15.505C50.3581 15.2747 50.7549 15.1519 51.1608 15.1519C51.7049 15.1519 52.2268 15.3725 52.6116 15.7653C52.9965 16.1582 53.2127 16.6909 53.2128 17.2465Z" fill="white"/>
</g>
<defs>
<clipPath id="clip0">
<rect width="114" height="54" fill="white"/>
</clipPath>
</defs>
</svg>
